{
    "debug": true,
    "prefix": "!",
    "mattermost": {
        "scheme": "https",
        "port": 443,
        "url": "ingasiamm.southeastasia.cloudapp.azure.com",
        "user": "vader@asia.ing.com",
        "password": "p@ssword",
        "verify": ""
    },
    "mattermostDev": {
        "scheme": "https",
        "port": 443,
        "url": "ingasiamm.southeastasia.cloudapp.azure.com",
        "user": "vader@asia.ing.com",
        "password": "p@ssword",
        "verify": false
    },
    "grafana": {
        "scheme": "http",
        "url": "",
        "user": "",
        "password": ""
    },
    "ssh": {
        "enabled": false,
        "host": "",
        "user": "",
        "keypath": ""
    },
    "azure": {
        "subscriptionId": "",
        "clientId": "",
        "clientSecret": "",
        "tenantId": ""
    },
    "kubeContextDic": {
        "kubeCxt": "default/ingasiadevtestmaster-southeastasia-cloudapp-azure-com:443/osadmin"
    }
}
